{
    "Geometry": "presentation_floor",
    "Material": "pbr",
    "Textures": {
        "uDiffuseTexture": "tiles/tiles_0065_color_1k",
        "uNormalTexture": "tiles/tiles_0065_normal_opengl_1k",
        "uRoughnessTexture": "tiles/tiles_0065_roughness_1k"
    }
}