{
    "Scene": {
        "Entities": [
            {
                "Components": {
                    "Transform": {
                        "Position": [
                            280.0,
                            200.0,
                            0.0
                        ]
                    },
                    "Tag": {
                        "Tag": "Game Interruption Text"
                    },
                    "Text": {
                        "Text": "GET READY",
                        "Dimensions": [120, 40],
                        "Color": [0.133, 0.780, 0.883, 1.0],
                        "Visible": true,
                        "IsOverlay": true,
                        "Face": "Tron",
                        "Size": 300.0
                    }
                },
                "Children": [
                ]
            },
            {
                "Components": {
                    "Transform": {
                        "Position": [
                            280.0,
                            200.0,
                            0.0
                        ]
                    },
                    "Tag": {
                        "Tag": "Time"
                    },
                    "Text": {
                        "Text": "00:00",
                        "Dimensions": [120, 40],
                        "Color": [0.133, 0.780, 0.883, 1.0],
                        "Visible": true,
                        "IsOverlay": true,
                        "Face": "RocketRinder",
                        "Size": 120.0
                    }
                },
                "Children": [
                ]
            },
            {
                "Components": {
                    "Transform": {
                        "Position": [
                            280.0,
                            200.0,
                            0.0
                        ]
                    },
                    "Tag": {
                        "Tag": "P1 Score"
                    },
                    "Text": {
                        "Text": "P1: 0",
                        "Dimensions": [120, 40],
                        "Color": [0.133, 0.780, 0.883, 1.0],
                        "Visible": true,
                        "IsOverlay": true,
                        "Face": "RocketRinder",
                        "Size": 150.0
                    }
                },
                "Children": [
                ]
            },
            {
                "Components": {
                    "Transform": {
                        "Position": [
                            280.0,
                            200.0,
                            0.0
                        ]
                    },
                    "Tag": {
                        "Tag": "P2 Score"
                    },
                    "Text": {
                        "Text": "P2: 0",
                        "Dimensions": [120, 40],
                        "Color": [0.133, 0.780, 0.883, 1.0],
                        "Visible": true,
                        "IsOverlay": true,
                        "Face": "RocketRinder",
                        "Size": 150.0
                    }
                },
                "Children": [
                ]
            },
            {
                "Components": {
                    "Transform": {
                        "Position": [
                            0.0,
                            0.0,
                            0.0
                        ]
                    },
                    "Tag": {
                        "Tag": "Game Controller"
                    },
                    "Script":{
                        "Scripts":[
                            "tron_game_controller"
                        ]
                    }

                },
                "Children": [
                ]
            }
        ]
    }
}