{
    "Components": {
        "Tag": {
            "Tag": "FireAttackSound"
        },
        "Script": {
            "Scripts": [
                "::audio_source_handler",
                "fire_attack"
            ]
        }
    },
    "Children": []
}